{
    "type": "application",
    "source-directories": [
        "src",
        "elm-style-framework/src"
    ],
    "elm-version": "0.19.1",
    "dependencies": {
        "direct": {
            "NoRedInk/elm-json-decode-pipeline": "1.0.0",
            "Skinney/murmur3": "2.0.8",
            "basti1302/elm-human-readable-filesize": "1.2.0",
            "elm/browser": "1.0.1",
            "elm/core": "1.0.2",
            "elm/html": "1.0.0",
            "elm/http": "2.0.0",
            "elm/json": "1.1.3",
            "elm/random": "1.0.0",
            "elm/regex": "1.0.0",
            "elm/svg": "1.0.1",
            "elm/time": "1.0.0",
            "elm/url": "1.0.0",
            "elm-community/list-extra": "8.2.3",
            "elm-community/maybe-extra": "5.0.0",
            "elm-community/random-extra": "3.1.0",
            "jweir/elm-iso8601": "6.0.0",
            "krisajenkins/remotedata": "6.0.1",
            "mdgriffith/elm-ui": "1.1.0",
            "pablen/toasty": "1.2.0",
            "stoeffel/set-extra": "1.2.3",
            "truqu/elm-base64": "2.0.4"
        },
        "indirect": {
            "elm/bytes": "1.0.8",
            "elm/file": "1.0.5",
            "elm/virtual-dom": "1.0.2",
            "myrho/elm-round": "1.0.4",
            "owanturist/elm-union-find": "1.0.0"
        }
    },
    "test-dependencies": {
        "direct": {
            "elm-explorations/test": "1.1.0"
        },
        "indirect": {}
    }
}
